Lab 1
…
Only keep observations legal status is “permitted site” and care is “MTA” or “DPW”. Sotre as “permitted_mta_dpw”

Pseudocode

Filter the permitted site and caretaken in MTA and DPW

Code

sfo_trees_df %>% 
  filter(legal_status == "Permitted Site" & caretaker %in% c('MTA', 'DPW'))

# A tibble: 65 × 12
   tree_id legal_status species address site_…¹ site_…² caret…³ plant_date   dbh
     <dbl> <chr>        <chr>   <chr>     <dbl> <chr>   <chr>   <date>     <dbl>
 1  107888 Permitted S… Ginkgo… 941 Wa…       6 Sidewa… DPW     2014-11-03     3
 2   98486 Permitted S… Casuri… 531X F…      11 Sidewa… DPW     NA             9
 3   27437 Permitted S… Fraxin… 1690X …       2 Sidewa… MTA     NA             6
 4   26669 Permitted S… Trista… 495X G…       3 Sidewa… MTA     NA             8
 5  104960 Permitted S… ::      2895 S…      NA Sidewa… DPW     NA            NA
 6   26672 Permitted S… Trista… 495X G…       6 Sidewa… MTA     NA             8
 7   98481 Permitted S… Gledit… 531X F…       6 Sidewa… DPW     NA             6
 8  100665 Permitted S… Tree(s… 63 Wal…       1 Sidewa… DPW     2012-09-04    NA
 9   92522 Permitted S… Ulmus … 1350 F…       2 Sidewa… DPW     2009-08-07    NA
10   91827 Permitted S… Platan… 1941 H…       1 Sidewa… MTA     2007-03-07     3
# … with 55 more rows, 3 more variables: plot_size <chr>, latitude <dbl>,
#   longitude <dbl>, and abbreviated variable names ¹​site_order, ²​site_info,
#   ³​caretaker
…
